Linear Regression Modelling Assignment
…
##   length gender    parity
## 1     45   Male Singleton
## 2     50   Male Singleton
## 3     55   Male Singleton
## 4     60   Male Singleton
## 5     65   Male Singleton
## 6     45 Female Singleton

Calculate Predicted Values with New Dataset

DataSetPred.NewDt <- augment(ModelGenParLt_LtPar, newdata = new_data)
DataSetPred.NewDt

## # A tibble: 40 x 5
##    length gender parity    .fitted .se.fit
##     <dbl> <fct>  <fct>       <dbl>   <dbl>
##  1     45 Male   Singleton    34.5  0.340 
##  2     50 Male   Singleton    36.2  0.186 
##  3     55 Male   Singleton    38.0  0.0903
##  4     60 Male   Singleton    39.8  0.189 
##  5     65 Male   Singleton    41.6  0.343 
##  6     45 Female Singleton    34.0  0.322 
##  7     50 Female Singleton    35.7  0.171 
##  8     55 Female Singleton    37.5  0.0934
##  9     60 Female Singleton    39.3  0.206 
## 10     65 Female Singleton    41.1  0.361 
## # ... with 30 more rows

Explore Influential

Measure influential in the model 1. cooks distanc: value above 1 or above 4/n 2. standardized residual: values above 2 or lower than -2

(2*4 +2)/550

## [1] 0.01818182

leverage above (2k +2)/n = 0.0182

influen.obs <- Pred.PrelimFinalModel %>% filter(.std.resid > 2 | .std.resid < -2 | .hat > 0.0182)
influen.obs

## # A tibble: 180 x 11
##    headc length gender parity .fitted .se.fit  .resid    .hat .sigma
##    <dbl>  <dbl> <fct>  <fct>    <dbl>   <dbl>   <dbl>   <dbl>  <dbl>
##  1  38     56   Female 3 or ~    37.9  0.145   0.0890 0.0189    1.05
##  2  39.7   57   Male   3 or ~    38.6  0.168   1.07   0.0254    1.05
##  3  39     58.5 Male   2 sib~    39.5  0.178  -0.550  0.0287    1.05
##  4  39.5   59   Female 2 sib~    39.2  0.203   0.301  0.0373    1.05
##  5  38.5   58   Male   3 or ~    38.8  0.205  -0.338  0.0378    1.05
##  6  40.5   54.5 Female 2 sib~    37.7  0.108   2.79   0.0105    1.05
##  7  39.2   59   Male   Singl~    39.5  0.161  -0.250  0.0234    1.05
##  8  38.4   58   Female One s~    38.6  0.142  -0.205  0.0182    1.05
##  9  37.5   58.5 Female Singl~    38.8  0.163  -1.26   0.0240    1.05
## 10  41.2   56   Male   One s~    38.6  0.0944  2.64   0.00805   1.05
## # ... with 170 more rows, and 2 more variables: .cooksd <dbl>,
## #   .std.resid <dbl>

Dataset with Standardized Residual between 2 and -2

NonInfluenObs <- Pred.PrelimFinalModel %>% filter(.std.resid < 2 | .std.resid > -2 | .hat < 0.0182)
NonInfluenObs

## # A tibble: 550 x 11
##    headc length gender parity .fitted .se.fit  .resid    .hat .sigma
##    <dbl>  <dbl> <fct>  <fct>    <dbl>   <dbl>   <dbl>   <dbl>  <dbl>
##  1  37.5   55.5 Female 3 or ~    37.8  0.141  -0.308  0.0179    1.05
##  2  38.5   57   Female Singl~    38.2  0.125   0.278  0.0142    1.05
##  3  38.5   56   Male   2 sib~    38.7  0.116  -0.221  0.0121    1.05
##  4  39     56   Male   One s~    38.6  0.0944  0.444  0.00805   1.05
##  5  39.5   55   Male   2 sib~    38.4  0.109   1.11   0.0107    1.05
##  6  34.5   51.5 Female Singl~    36.3  0.132  -1.76   0.0157    1.05
##  7  38     56   Female 3 or ~    37.9  0.145   0.0890 0.0189    1.05
##  8  39.7   57   Male   3 or ~    38.6  0.168   1.07   0.0254    1.05
##  9  39     58.5 Male   2 sib~    39.5  0.178  -0.550  0.0287    1.05
## 10  38     52   Male   One s~    37.4  0.131   0.574  0.0155    1.05
## # ... with 540 more rows, and 2 more variables: .cooksd <dbl>,
## #   .std.resid <dbl>
…
